<svg width="280" height="203" xmlns="http://www.w3.org/2000/svg" version="1.0" preserveAspectRatio="xMidYMid meet">
 <metadata>Created by potrace 1.15, written by Peter Selinger 2001-2017</metadata>

 <g>
  <title>Layer 1</title>
  <g transform="translate(0 1163) scale(0.1 -0.1)" fill="#000000" id="svg_1">
   <path d="m30,11585c0,-24 3,-25 53,-25c80,0 150,-24 185,-64c24,-28 32,-47 37,-98c3,-35 5,-398 3,-808l-3,-745l-25,-50c-34,-68 -95,-105 -184,-112c-65,-6 -66,-6 -66,-35l0,-28l343,2l342,3l0,25c0,24 -4,25 -69,33c-81,9 -137,36 -179,89c-24,30 -31,50 -38,115c-11,108 -11,1519 0,1508c5,-6 179,-404 386,-885c208,-481 382,-879 387,-885c5,-6 14,-6 24,0c8,6 184,410 390,899c205,489 376,891 379,894c3,3 4,-358 3,-804c-3,-765 -4,-811 -22,-846c-28,-58 -74,-81 -173,-86l-83,-5l0,-28l0,-29l520,0l520,0l0,30l0,30l-68,0c-84,0 -157,32 -187,82c-19,32 -20,56 -23,808c-2,426 0,798 3,827c13,104 74,153 202,161c69,4 73,6 73,28l0,24l-407,0l-408,0l-264,-643c-145,-353 -267,-645 -270,-649c-4,-4 -131,284 -283,640l-276,647l-411,3l-411,2l0,-25z" id="svg_2"/>
  </g>
 </g>
</svg>