<svg width="297" height="213" xmlns="http://www.w3.org/2000/svg" preserveAspectRatio="xMidYMid meet" version="1.0">
 <metadata>Created by potrace 1.15, written by Peter Selinger 2001-2017</metadata>

 <g>
  <title>Layer 1</title>
  <g id="svg_1" fill="#000000" transform="translate(0 1163) scale(0.1 -0.1)">
   <path id="svg_2" d="m70,11565c0,-19 6,-26 28,-30c72,-15 95,-36 144,-135c40,-80 258,-634 639,-1622c84,-217 84,-218 114,-218l30,0l253,623c139,342 256,628 261,635c9,14 3,28 297,-770l179,-488l30,0l30,0l299,818c165,449 321,875 349,945c55,144 90,189 157,207c33,9 40,15 40,35l0,25l-250,0l-250,0l0,-24c0,-22 6,-26 48,-32c130,-18 164,-80 127,-226c-15,-54 -348,-976 -364,-1006c-4,-7 -18,17 -33,60c-14,40 -103,282 -198,538c-102,276 -174,486 -177,516c-5,43 -2,54 18,78c20,23 37,29 102,38c71,10 77,13 77,35l0,23l-465,0l-465,0l0,-24c0,-22 6,-25 53,-31c125,-17 161,-66 276,-373c33,-90 61,-169 61,-175c0,-14 -292,-748 -296,-744c-8,8 -396,1016 -418,1086c-30,95 -31,112 -11,150c15,31 47,46 113,56c36,6 42,10 42,31l0,24l-420,0l-420,0l0,-25z"/>
  </g>
 </g>
</svg>